<svg xmlns="http://www.w3.org/2000/svg" width="26.842" height="6" viewBox="0 0 26.842 6">
  <path id="Caminho_5511" data-name="Caminho 5511" d="M-2771,209h26.842" transform="translate(2771 -206)" fill="none" stroke="#fff" stroke-width="6"/>
</svg>
