<svg xmlns="http://www.w3.org/2000/svg" xmlns:xlink="http://www.w3.org/1999/xlink" width="22" height="22" viewBox="0 0 22 22">
  <defs>
    <clipPath id="clip-path">
      <rect width="22" height="22" fill="none"/>
    </clipPath>
  </defs>
  <g id="Componente_22_83" data-name="Componente 22 – 83" clip-path="url(#clip-path)">
    <path id="Caminho_13" data-name="Caminho 13" d="M3.192,3.192A9.661,9.661,0,0,1,10.642,0a9.661,9.661,0,0,1,7.449,3.192,9.661,9.661,0,0,1,3.192,7.449,9.661,9.661,0,0,1-3.192,7.449,9.661,9.661,0,0,1-7.449,3.192,9.661,9.661,0,0,1-7.449-3.192A10.62,10.62,0,0,1,0,10.642,9.661,9.661,0,0,1,3.192,3.192ZM15.43,15.43l1.242-1.242L12.238,9.755l-1.6-7.094H8.868v7.981A1.61,1.61,0,0,0,9.4,11.883a.619.619,0,0,0,.355.177Z" transform="translate(0 0)" fill="#fff"/>
  </g>
</svg>
