<svg xmlns="http://www.w3.org/2000/svg" width="21.889" height="20.29" viewBox="0 0 21.889 20.29">
  <path id="Heart" d="M17.4,1.535a5.075,5.075,0,0,0-7.224,0l-.711.711-.711-.711A5.108,5.108,0,0,0,1.535,8.759L9.47,16.694,17.4,8.759a5.075,5.075,0,0,0,0-7.224" transform="translate(1.475 1.475)" fill="none" stroke="#0a1265" stroke-width="3" fill-rule="evenodd"/>
</svg>
