<svg xmlns="http://www.w3.org/2000/svg" width="231" height="75" viewBox="0 0 231 75">
  <g id="Grupo_436" data-name="Grupo 436" transform="translate(-654 -1721)">
    <g id="finland" transform="translate(670.115 1733)">
      <rect id="Retângulo_527" data-name="Retângulo 527" width="76.498" height="50.999" transform="translate(0 0.001)" fill="#f0f0f0"/>
      <path id="Caminho_5822" data-name="Caminho 5822" d="M76.5,107.642v6.374H27.44v22.313H21.064V114.016H0v-6.374H21.064V85.329H27.44v22.313Z" transform="translate(0 -85.329)" fill="#2e52b2"/>
    </g>
    <text id="FINLÂNDIA" transform="translate(765 1749)" font-size="18" font-family="Axiforma-Bold, Axiforma" font-weight="700"><tspan x="0" y="14">FINLÂNDIA</tspan></text>
    <g id="Retângulo_531" data-name="Retângulo 531" transform="translate(654 1721)" fill="none" stroke="#0c1663" stroke-width="2">
      <rect width="231" height="75" stroke="none"/>
      <rect x="1" y="1" width="229" height="73" fill="none"/>
    </g>
  </g>
</svg>
