<svg xmlns="http://www.w3.org/2000/svg" width="16.471" height="25.381" viewBox="0 0 16.471 25.381">
  <path id="Caminho_5597" data-name="Caminho 5597" d="M12.691,16.471,0,3.78,3.78,0l8.91,8.91L21.6,0l3.78,3.78Z" transform="translate(16.471) rotate(90)" fill="#0a1265"/>
</svg>
