<svg xmlns="http://www.w3.org/2000/svg" width="14.924" height="21.012" viewBox="0 0 14.924 21.012">
  <g id="Grupo_10" data-name="Grupo 10" transform="translate(-352.878 -140.842)">
    <g id="Grupo_8" data-name="Grupo 8" transform="translate(352.878 140.842)">
      <path id="Caminho_206" data-name="Caminho 206" d="M360.226,161.854a2.423,2.423,0,0,1-2.056-1.132l-3.481-5.515a10.888,10.888,0,0,1-1.644-7.807c.294-1.572,1.732-6.664,7.314-6.557,3.689.089,6.322,2.351,7.226,6.207a9.117,9.117,0,0,1-1.183,6.761l-4.087,6.855a2.418,2.418,0,0,1-2.057,1.188Zm-.072-19.448c-4.132,0-5.272,3.682-5.573,5.282a9.344,9.344,0,0,0,1.43,6.687l3.481,5.512a.736.736,0,0,0,.747.4.851.851,0,0,0,.734-.424l4.087-6.855a7.582,7.582,0,0,0,1.006-5.6c-.525-2.231-1.946-4.911-5.743-5Z" transform="translate(-352.878 -140.842)" fill="#0a1265"/>
    </g>
    <g id="Grupo_9" data-name="Grupo 9" transform="translate(357.033 145.589)">
      <path id="Caminho_207" data-name="Caminho 207" d="M359.936,151.739a3.306,3.306,0,1,1,3.306-3.3A3.31,3.31,0,0,1,359.936,151.739Zm0-5.049a1.744,1.744,0,1,0,1.744,1.745A1.746,1.746,0,0,0,359.936,146.69Z" transform="translate(-356.629 -145.127)" fill="#0a1265"/>
    </g>
  </g>
</svg>
