<svg xmlns="http://www.w3.org/2000/svg" width="19.263" height="14.621" viewBox="0 0 19.263 14.621">
  <g id="Grupo_5" data-name="Grupo 5" transform="translate(-349.54 -292.293)">
    <path id="Caminho_202" data-name="Caminho 202" d="M359.181,292.294q3.546,0,7.092,0a2.274,2.274,0,0,1,2.529,2.517q0,4.813,0,9.626a2.261,2.261,0,0,1-2.485,2.475q-7.155,0-14.311,0a2.255,2.255,0,0,1-2.465-2.451q0-4.855,0-9.712a2.256,2.256,0,0,1,2.464-2.453Q355.593,292.289,359.181,292.294Zm7.656,3.589c-.165.133-.273.217-.378.3l-6.038,5.1a2.274,2.274,0,0,1-2.513-.012q-3.018-2.55-6.038-5.1c-.1-.087-.214-.164-.392-.3v8.5c0,.562.039.6.615.6q7.088,0,14.176,0c.553,0,.6-.044.6-.578q0-4.017,0-8.033C366.864,296.227,366.849,296.092,366.837,295.883Zm-1.248-1.614H352.746l6.423,5.439Z" fill="#fff"/>
  </g>
</svg>
