<svg xmlns="http://www.w3.org/2000/svg" width="9.013" height="13.889" viewBox="0 0 9.013 13.889">
  <path id="Caminho_5146" data-name="Caminho 5146" d="M8.944,11.013,2,4.069,4.069,2,8.944,6.876,13.82,2l2.069,2.069Z" transform="translate(-2 15.889) rotate(-90)" fill="#205ca4"/>
</svg>
