<svg xmlns="http://www.w3.org/2000/svg" width="21.235" height="19.973" viewBox="0 0 21.235 19.973">
  <g id="nepal" transform="translate(0.32 0.149)">
    <ellipse id="Elipse_7" data-name="Elipse 7" cx="10.5" cy="9.5" rx="10.5" ry="9.5" transform="translate(-0.32 -0.149)" fill="#f0f0f0"/>
    <g id="Grupo_398" data-name="Grupo 398" transform="translate(1.255 0.157)">
      <path id="Caminho_5688" data-name="Caminho 5688" d="M510.49,283.818h0Z" transform="translate(-490.83 -272.939)" fill="#0052b4"/>
      <path id="Caminho_5689" data-name="Caminho 5689" d="M19.66,12.21h0L8.848,1.331a9.827,9.827,0,0,0-1.429.253C3.154,2.67,0,11.139,0,11.139s13.8,9.237,15.377,8.171a9.893,9.893,0,0,0,.9-.691L9.874,12.21Z" transform="translate(0 -1.331)" fill="#0052b4"/>
    </g>
    <path id="Caminho_5690" data-name="Caminho 5690" d="M17.146,16.617,7.558,7.029a9.86,9.86,0,1,0,7.867,17.726L7.287,16.617Z" transform="translate(1.255 -6.653)" fill="#d80027"/>
    <g id="Grupo_399" data-name="Grupo 399" transform="translate(4.738 3.535)">
      <path id="Caminho_5691" data-name="Caminho 5691" d="M96.334,308.008l-1.2-.566.641-1.166-1.307.25-.166-1.321-.911.971-.911-.971-.166,1.321L91,306.276l.641,1.166-1.2.566,1.2.566L91,309.741l1.307-.25.166,1.321.911-.971.911.971.166-1.321,1.307.25-.641-1.166Z" transform="translate(-90.441 -296.88)" fill="#f0f0f0"/>
      <path id="Caminho_5692" data-name="Caminho 5692" d="M115.59,91.082l-.876-.412.466-.848L114.23,90l-.12-.961-.662.707-.662-.707-.121.961-.951-.182.466.848-.876.412,2.143.429Z" transform="translate(-110.501 -89.043)" fill="#f0f0f0"/>
      <path id="Caminho_5693" data-name="Caminho 5693" d="M105.317,141.983a2.572,2.572,0,1,1-5.144,0" transform="translate(-99.798 -139.944)" fill="#f0f0f0"/>
    </g>
  </g>
</svg>
