<svg xmlns="http://www.w3.org/2000/svg" width="26.681" height="26.676" viewBox="0 0 26.681 26.676">
  <g id="portugal" transform="translate(0 -0.004)">
    <g id="BULINE">
      <circle id="Elipse_8" data-name="Elipse 8" cx="13" cy="13" r="13" transform="translate(0.426 0.425)" fill="#27273d"/>
    </g>
    <g id="Icons" transform="translate(0 0.004)">
      <path id="Caminho_5731" data-name="Caminho 5731" d="M10.683,5.08V31.231a13.343,13.343,0,0,1,0-26.151Z" transform="translate(0 -4.819)" fill="#02934d"/>
      <path id="Caminho_5732" data-name="Caminho 5732" d="M221,13.416a13.343,13.343,0,0,1-13.111,13.34h-.46A13.438,13.438,0,0,1,205,26.5V.341A13.414,13.414,0,0,1,207.4.08h.521A13.337,13.337,0,0,1,221,13.416Z" transform="translate(-194.317 -0.08)" fill="#db1b1b"/>
      <path id="Caminho_5733" data-name="Caminho 5733" d="M102.154,88.46a5.654,5.654,0,1,0,5.654,5.656A5.654,5.654,0,0,0,102.154,88.46Zm4.857,5.263H103.1l.078-.078,1.423-1.423,1.264-1.264A4.846,4.846,0,0,1,107.011,93.723Zm-4.466-4.466a4.846,4.846,0,0,1,2.658,1.059l.1.088-2.762,2.766Zm-.782,0V93.17l-.141-.14-1.563-1.566L99,90.4l.1-.088A4.846,4.846,0,0,1,101.763,89.257Zm-3.318,1.7,1.265,1.264,1.423,1.425.078.078H97.3A4.85,4.85,0,0,1,98.445,90.958ZM97.3,94.5h3.914l-.542.541-.747.746-.782.782-.695.7A4.856,4.856,0,0,1,97.3,94.5Zm4.466,4.465A4.853,4.853,0,0,1,99,97.824l.594-.595.769-.768,1.4-1.4Zm.782,0V95.057l2.766,2.766a4.853,4.853,0,0,1-2.767,1.147Zm3.318-1.7-1.476-1.477-.746-.744L103.1,94.5h3.913a4.853,4.853,0,0,1-1.148,2.765Z" transform="translate(-91.471 -83.854)" fill="#f6c752"/>
      <path id="Caminho_5734" data-name="Caminho 5734" d="M139.943,124a.443.443,0,0,0-.443.443v4.583h.019a3.413,3.413,0,0,0,6.788,0h.019V124.44a.443.443,0,0,0-.443-.44Z" transform="translate(-132.231 -117.542)" fill="#e83838"/>
      <path id="Caminho_5735" data-name="Caminho 5735" d="M158.527,145.953a.427.427,0,0,0-.427.427v3.168h.014a2.444,2.444,0,0,0,4.861,0h.014v-3.171a.427.427,0,0,0-.427-.427Z" transform="translate(-149.861 -138.349)" fill="#fff"/>
      <g id="Grupo_409" data-name="Grupo 409" transform="translate(8.681 8.096)">
        <path id="Caminho_5736" data-name="Caminho 5736" d="M193.694,155.45a.1.1,0,0,0-.1.1v.771h0a.595.595,0,0,0,1.182,0h0v-.771a.1.1,0,0,0-.1-.1Z" transform="translate(-192.183 -155.45)" fill="#3e436d"/>
        <path id="Caminho_5737" data-name="Caminho 5737" d="M193.694,222.361a.1.1,0,0,0-.1.1v.772h0a.595.595,0,0,0,1.182,0h0v-.772a.1.1,0,0,0-.1-.1Z" transform="translate(-192.183 -218.873)" fill="#3e436d"/>
        <path id="Caminho_5738" data-name="Caminho 5738" d="M193.694,188a.1.1,0,0,0-.1.1v.771h0a.595.595,0,0,0,1.182,0h0V188.1a.1.1,0,0,0-.1-.1Z" transform="translate(-192.183 -186.304)" fill="#3e436d"/>
        <path id="Caminho_5739" data-name="Caminho 5739" d="M166.694,188a.1.1,0,0,0-.1.1v.771h0a.595.595,0,0,0,1.182,0h0V188.1a.1.1,0,0,0-.1-.1Z" transform="translate(-166.59 -186.304)" fill="#3e436d"/>
        <path id="Caminho_5740" data-name="Caminho 5740" d="M221.194,188a.1.1,0,0,0-.1.1v.771h0a.595.595,0,0,0,1.182,0h0V188.1a.1.1,0,0,0-.1-.1Z" transform="translate(-218.25 -186.304)" fill="#3e436d"/>
      </g>
      <path id="Caminho_5741" data-name="Caminho 5741" d="M10.683,5.08V6.234a13.346,13.346,0,0,0,0,23.843v1.154a13.343,13.343,0,0,1,0-26.151Z" transform="translate(0 -4.819)" fill="#037c3c"/>
      <path id="Caminho_5742" data-name="Caminho 5742" d="M208.335.341A13.231,13.231,0,0,0,205,1.494V.341A13.414,13.414,0,0,1,207.4.08h.521a13.653,13.653,0,0,1,1.407.1C208.992.22,208.661.275,208.335.341Z" transform="translate(-194.317 -0.08)" fill="#c41c1c"/>
      <path id="Caminho_5743" data-name="Caminho 5743" d="M208.335,485.924q.488.1.99.162a13.468,13.468,0,0,1-1.438.1h-.46a13.44,13.44,0,0,1-2.428-.261V484.77A13.233,13.233,0,0,0,208.335,485.924Z" transform="translate(-194.317 -459.512)" fill="#c41c1c"/>
    </g>
  </g>
</svg>
