<svg xmlns="http://www.w3.org/2000/svg" width="22.939" height="18.606" viewBox="0 0 22.939 18.606">
  <path id="Caminho_39" data-name="Caminho 39" d="M45.264,20.606A13.262,13.262,0,0,0,58.645,7.225V6.588a10.359,10.359,0,0,0,2.294-2.421,10.579,10.579,0,0,1-2.676.765A4.958,4.958,0,0,0,60.3,2.382a11.689,11.689,0,0,1-2.931,1.147A4.551,4.551,0,0,0,53.93,2a4.788,4.788,0,0,0-4.715,4.715,2.485,2.485,0,0,0,.127,1.02,13.176,13.176,0,0,1-9.685-4.97,4.88,4.88,0,0,0-.637,2.421,5.063,5.063,0,0,0,2.039,3.951A4.3,4.3,0,0,1,38.892,8.5h0a4.657,4.657,0,0,0,3.823,4.588,3.929,3.929,0,0,1-1.274.127,2.169,2.169,0,0,1-.892-.127,4.828,4.828,0,0,0,4.46,3.313,9.622,9.622,0,0,1-5.862,2.039A3.528,3.528,0,0,1,38,18.312a12.029,12.029,0,0,0,7.264,2.294" transform="translate(-38 -2)" fill="#fff" fill-rule="evenodd"/>
</svg>
