<svg xmlns="http://www.w3.org/2000/svg" width="1061.1" height="229.5" viewBox="0 0 1061.1 229.5">
  <path id="Caminho_5865" data-name="Caminho 5865" d="M96.9,235.9q-55.8,0-94.2-36.6l30-46.5q31.2,25.8,65.1,25.8,21.3,0,21.3-11.7,0-7.8-16.8-13.8-7.2-2.4-13.8-4.2Q65.1,141.7,54,136.3,16.8,118,16.8,77.8q0-30.6,24.3-50.7Q65.1,7,103.2,7a135.072,135.072,0,0,1,82.2,27L157.8,82.3q-9.3-6.9-25.8-12-16.2-5.1-27.9-5.1-10.2,0-15.45,3T83.4,76a9.079,9.079,0,0,0,4.2,7.95q4.2,2.85,13.2,5.55,31.5,9.6,42.6,14.1,45,17.4,45,59.7,0,31.5-24.9,52.2Q138.6,235.9,96.9,235.9ZM405,202.6q-33,33-82.8,33t-83.4-33q-33.3-33.3-33.3-81.6,0-48.6,33.3-81.3Q272.1,6.4,321.9,6.4T405,39.7q33.3,32.7,33.3,81.6Q438.3,169.6,405,202.6Zm-83.1-28.8q21.9,0,36.9-15,15-15.6,14.7-37.8-.3-23.1-15.3-38.1-14.7-14.7-36.3-14.7t-36.6,15q-15,15-15,37.8t15,37.8Q300.3,173.8,321.9,173.8Zm289.5-63.6q20.4,4.5,31.35,19.65T653.7,166.3q0,29.1-20.1,47.4T581.4,232H468.3V10.3H576q30.9,0,48.6,16.2Q642,42.7,642,64.9a48.828,48.828,0,0,1-8.55,27.75A43.834,43.834,0,0,1,611.4,110.2ZM564,62.5H529.5V94h31.8q9.6,0,14.55-4.35A14.283,14.283,0,0,0,580.8,78.4a15.325,15.325,0,0,0-4.65-11.25Q571.5,62.5,564,62.5ZM529.5,179.2h38.1q10.8,0,16.35-5.25a18.292,18.292,0,0,0,.3-25.95q-5.25-5.1-14.55-5.1H529.5ZM870.9,232H799.8l-35.1-69.3H745.5V232H683.1V10.3h96.6q41.7,0,62.7,21,21.3,21.3,21.3,54.3a80.222,80.222,0,0,1-9.6,39.15q-9.6,17.55-28.5,27.15ZM779.1,67H745.5v41.7h32.1q10.5,0,16.2-5.85t5.7-15.15q0-9.3-5.4-15T779.1,67Zm284.1,165H897.9V10.3h165.9V67.9H960.9V92.5H1056v57.3H960.9v24.6h102.3Z" transform="translate(-2.7 -6.4)" fill="#3c74bf" opacity="0.051"/>
</svg>
